%YAML 1.1
%TAG !u! tag:unity3d.com,2011:
--- !u!181963792 &2655988077585873504
Preset:
  m_ObjectHideFlags: 0
  m_CorrespondingSourceObject: {fileID: 0}
  m_PrefabInstance: {fileID: 0}
  m_PrefabAsset: {fileID: 0}
  m_Name: AI_data
  m_TargetType:
    m_NativeTypeID: 114
    m_ManagedTypePPtr: {fileID: 11500000, guid: 31a466e1cd5ebd449a2fd16d8165c5a6,
      type: 3}
    m_ManagedTypeFallback: 
  m_Properties:
  - target: {fileID: 0}
    propertyPath: m_Enabled
    value: 1
    objectReference: {fileID: 0}
  - target: {fileID: 0}
    propertyPath: m_EditorHideFlags
    value: 0
    objectReference: {fileID: 0}
  - target: {fileID: 0}
    propertyPath: m_EditorClassIdentifier
    value: 
    objectReference: {fileID: 0}
  - target: {fileID: 0}
    propertyPath: enemy
    value: 
    objectReference: {fileID: 0}
  - target: {fileID: 0}
    propertyPath: bubbleShooter
    value: 
    objectReference: {fileID: 0}
  - target: {fileID: 0}
    propertyPath: controller
    value: 
    objectReference: {fileID: 0}
  - target: {fileID: 0}
    propertyPath: enemyTarget
    value: 
    objectReference: {fileID: 0}
  - target: {fileID: 0}
    propertyPath: fightSystem
    value: 
    objectReference: {fileID: 0}
  - target: {fileID: 0}
    propertyPath: rayDistance
    value: 2
    objectReference: {fileID: 0}
  - target: {fileID: 0}
    propertyPath: target
    value: 
    objectReference: {fileID: 0}
  - target: {fileID: 0}
    propertyPath: Chease_speed
    value: 0.2
    objectReference: {fileID: 0}
  - target: {fileID: 0}
    propertyPath: ChaseRange
    value: 1
    objectReference: {fileID: 0}
  - target: {fileID: 0}
    propertyPath: nextChaseSpeed
    value: 0
    objectReference: {fileID: 0}
  - target: {fileID: 0}
    propertyPath: backSpeed
    value: 0
    objectReference: {fileID: 0}
  - target: {fileID: 0}
    propertyPath: backRang
    value: 0
    objectReference: {fileID: 0}
  - target: {fileID: 0}
    propertyPath: backTime
    value: 0
    objectReference: {fileID: 0}
  - target: {fileID: 0}
    propertyPath: backRate
    value: 0
    objectReference: {fileID: 0}
  - target: {fileID: 0}
    propertyPath: SightRange
    value: 10
    objectReference: {fileID: 0}
  - target: {fileID: 0}
    propertyPath: Rotationspeed
    value: 0.2
    objectReference: {fileID: 0}
  - target: {fileID: 0}
    propertyPath: rb
    value: 
    objectReference: {fileID: 0}
  - target: {fileID: 0}
    propertyPath: movementVec.x
    value: 0
    objectReference: {fileID: 0}
  - target: {fileID: 0}
    propertyPath: movementVec.y
    value: 0
    objectReference: {fileID: 0}
  - target: {fileID: 0}
    propertyPath: movementVec.z
    value: 0
    objectReference: {fileID: 0}
  - target: {fileID: 0}
    propertyPath: dirToPlayer.x
    value: 0
    objectReference: {fileID: 0}
  - target: {fileID: 0}
    propertyPath: dirToPlayer.y
    value: 0
    objectReference: {fileID: 0}
  - target: {fileID: 0}
    propertyPath: dirToPlayer.z
    value: 0
    objectReference: {fileID: 0}
  - target: {fileID: 0}
    propertyPath: isChase
    value: 0
    objectReference: {fileID: 0}
  - target: {fileID: 0}
    propertyPath: float_nextChase
    value: 0
    objectReference: {fileID: 0}
  - target: {fileID: 0}
    propertyPath: float_chaseRate
    value: 0
    objectReference: {fileID: 0}
  - target: {fileID: 0}
    propertyPath: maxHp
    value: 0
    objectReference: {fileID: 0}
  - target: {fileID: 0}
    propertyPath: currentHp
    value: 0
    objectReference: {fileID: 0}
  - target: {fileID: 0}
    propertyPath: isDead
    value: 0
    objectReference: {fileID: 0}
  - target: {fileID: 0}
    propertyPath: float_Distance
    value: 10
    objectReference: {fileID: 0}
  - target: {fileID: 0}
    propertyPath: float_checkInSight
    value: 20
    objectReference: {fileID: 0}
  - target: {fileID: 0}
    propertyPath: float_SlowDownDistance
    value: 0
    objectReference: {fileID: 0}
  - target: {fileID: 0}
    propertyPath: float_StopDistance
    value: 0
    objectReference: {fileID: 0}
  - target: {fileID: 0}
    propertyPath: melleAttackD_Damage
    value: 0
    objectReference: {fileID: 0}
  - target: {fileID: 0}
    propertyPath: melleAttack_Range
    value: 0
    objectReference: {fileID: 0}
  - target: {fileID: 0}
    propertyPath: shoot_Damage
    value: 0
    objectReference: {fileID: 0}
  - target: {fileID: 0}
    propertyPath: attackRate
    value: 0
    objectReference: {fileID: 0}
  - target: {fileID: 0}
    propertyPath: nextAttack
    value: 0
    objectReference: {fileID: 0}
  - target: {fileID: 0}
    propertyPath: bool_EnemyIsMoving
    value: 0
    objectReference: {fileID: 0}
  - target: {fileID: 0}
    propertyPath: vec_EnemyCurrentVector.x
    value: 0
    objectReference: {fileID: 0}
  - target: {fileID: 0}
    propertyPath: vec_EnemyCurrentVector.y
    value: 0
    objectReference: {fileID: 0}
  - target: {fileID: 0}
    propertyPath: vec_EnemyCurrentVector.z
    value: 0
    objectReference: {fileID: 0}
  - target: {fileID: 0}
    propertyPath: float_EnemyCurrentMoveForce
    value: 0
    objectReference: {fileID: 0}
  - target: {fileID: 0}
    propertyPath: float_EnemyCurrentMoveSpeed
    value: 0
    objectReference: {fileID: 0}
  - target: {fileID: 0}
    propertyPath: float_EnemyMaxSpeed
    value: 0
    objectReference: {fileID: 0}
  - target: {fileID: 0}
    propertyPath: float_EnemyMaxRotateSpeed
    value: 0
    objectReference: {fileID: 0}
  - target: {fileID: 0}
    propertyPath: float_EnemyTempRotateForce
    value: 0
    objectReference: {fileID: 0}
  - target: {fileID: 0}
    propertyPath: bool_Attack
    value: 0
    objectReference: {fileID: 0}
  - target: {fileID: 0}
    propertyPath: bool_EnemyHasRemoteAttackProperty
    value: 1
    objectReference: {fileID: 0}
  - target: {fileID: 0}
    propertyPath: bool_RotateShootProperty
    value: 0
    objectReference: {fileID: 0}
  - target: {fileID: 0}
    propertyPath: float_BubbleShootSpeed
    value: 0.2
    objectReference: {fileID: 0}
  - target: {fileID: 0}
    propertyPath: float_FirstShootDelayTime
    value: 3
    objectReference: {fileID: 0}
  - target: {fileID: 0}
    propertyPath: float_WaveShootTotalTime
    value: 10
    objectReference: {fileID: 0}
  - target: {fileID: 0}
    propertyPath: float_WaveShootOverDelayTime
    value: 5
    objectReference: {fileID: 0}
  - target: {fileID: 0}
    propertyPath: transArray_Emiiter.Array.size
    value: 4
    objectReference: {fileID: 0}
  - target: {fileID: 0}
    propertyPath: transArray_Emiiter.Array.data[0]
    value: 
    objectReference: {fileID: 0}
  - target: {fileID: 0}
    propertyPath: transArray_Emiiter.Array.data[1]
    value: 
    objectReference: {fileID: 0}
  - target: {fileID: 0}
    propertyPath: transArray_Emiiter.Array.data[2]
    value: 
    objectReference: {fileID: 0}
  - target: {fileID: 0}
    propertyPath: transArray_Emiiter.Array.data[3]
    value: 
    objectReference: {fileID: 0}
  - target: {fileID: 0}
    propertyPath: int_BubbleDamage
    value: 0
    objectReference: {fileID: 0}
  - target: {fileID: 0}
    propertyPath: float_ShootingDistance
    value: 0
    objectReference: {fileID: 0}
  - target: {fileID: 0}
    propertyPath: float_RotationSpeed
    value: 0
    objectReference: {fileID: 0}
  - target: {fileID: 0}
    propertyPath: bool_EnemyHasMelleAttackProperty
    value: 0
    objectReference: {fileID: 0}
  - target: {fileID: 0}
    propertyPath: boo1_InAttackRange
    value: 0
    objectReference: {fileID: 0}
  - target: {fileID: 0}
    propertyPath: float_LookRotationSpeed
    value: 0
    objectReference: {fileID: 0}
  - target: {fileID: 0}
    propertyPath: float_AttackRange
    value: 10
    objectReference: {fileID: 0}
  - target: {fileID: 0}
    propertyPath: float_FirstAttackCountDown
    value: 0
    objectReference: {fileID: 0}
  - target: {fileID: 0}
    propertyPath: float_FirstAttackDelayTime
    value: 0
    objectReference: {fileID: 0}
  - target: {fileID: 0}
    propertyPath: float_MelleAttackRate
    value: 0
    objectReference: {fileID: 0}
  - target: {fileID: 0}
    propertyPath: float_NextMelleAttack
    value: 0
    objectReference: {fileID: 0}
  - target: {fileID: 0}
    propertyPath: int_MelleAttack_Damage
    value: 0
    objectReference: {fileID: 0}
  - target: {fileID: 0}
    propertyPath: MelleAttackAnim.Array.size
    value: 0
    objectReference: {fileID: 0}
  - target: {fileID: 0}
    propertyPath: anim
    value: 
    objectReference: {fileID: 0}
  - target: {fileID: 0}
    propertyPath: takeDamage
    value: 0
    objectReference: {fileID: 0}
  - target: {fileID: 0}
    propertyPath: machineDamage
    value: 0
    objectReference: {fileID: 0}
  - target: {fileID: 0}
    propertyPath: IsFirstTimeAttack
    value: 0
    objectReference: {fileID: 0}
  - target: {fileID: 0}
    propertyPath: IsFirstTimeShoot
    value: 1
    objectReference: {fileID: 0}
  - target: {fileID: 0}
    propertyPath: f_LBMoveSpeed
    value: 0.08
    objectReference: {fileID: 0}
  - target: {fileID: 0}
    propertyPath: f_LBRotationSpeed
    value: 0.8
    objectReference: {fileID: 0}
  - target: {fileID: 0}
    propertyPath: f_LBdirToPlayer
    value: 0
    objectReference: {fileID: 0}
  - target: {fileID: 0}
    propertyPath: f_LBTimer
    value: 0
    objectReference: {fileID: 0}
  - target: {fileID: 0}
    propertyPath: f_LBTimerTemporarySave
    value: 0
    objectReference: {fileID: 0}
  - target: {fileID: 0}
    propertyPath: i_LBStatePattern
    value: 0
    objectReference: {fileID: 0}
  - target: {fileID: 0}
    propertyPath: b_LBRotating
    value: 0
    objectReference: {fileID: 0}
  - target: {fileID: 0}
    propertyPath: b_LBMoving
    value: 0
    objectReference: {fileID: 0}
  - target: {fileID: 0}
    propertyPath: b_LBJumping
    value: 0
    objectReference: {fileID: 0}
  - target: {fileID: 0}
    propertyPath: b_LBAttacking
    value: 0
    objectReference: {fileID: 0}
  - target: {fileID: 0}
    propertyPath: v_LBVectorChase.x
    value: 0
    objectReference: {fileID: 0}
  - target: {fileID: 0}
    propertyPath: v_LBVectorChase.y
    value: 0
    objectReference: {fileID: 0}
  - target: {fileID: 0}
    propertyPath: v_LBVectorChase.z
    value: 0
    objectReference: {fileID: 0}
  - target: {fileID: 0}
    propertyPath: rb_LBrb
    value: 
    objectReference: {fileID: 0}
  - target: {fileID: 0}
    propertyPath: f_LBAttackPrepareRange
    value: 8
    objectReference: {fileID: 0}
  - target: {fileID: 0}
    propertyPath: f_LBMelleAttackRange1
    value: 3
    objectReference: {fileID: 0}
  - target: {fileID: 0}
    propertyPath: f_LBMelleAttackRange2
    value: 4
    objectReference: {fileID: 0}
  - target: {fileID: 0}
    propertyPath: f_LBDeciedAttackRange
    value: 0
    objectReference: {fileID: 0}
  - target: {fileID: 0}
    propertyPath: f_LBShootAttackRange
    value: 10
    objectReference: {fileID: 0}
  - target: {fileID: 0}
    propertyPath: i_LBMelleAttackPattern
    value: 0
    objectReference: {fileID: 0}
  - target: {fileID: 0}
    propertyPath: i_LBShootAttackPattern
    value: 0
    objectReference: {fileID: 0}
  - target: {fileID: 0}
    propertyPath: b_LBEmitterRotate
    value: 0
    objectReference: {fileID: 0}
  - target: {fileID: 0}
    propertyPath: f_LBLeaveStateDistance
    value: 0
    objectReference: {fileID: 0}
  - target: {fileID: 0}
    propertyPath: go_LBJumpShoot.Array.size
    value: 0
    objectReference: {fileID: 0}
  - target: {fileID: 0}
    propertyPath: go_LBShootCircle.Array.size
    value: 0
    objectReference: {fileID: 0}
  - target: {fileID: 0}
    propertyPath: go_LBShootKome.Array.size
    value: 0
    objectReference: {fileID: 0}
  - target: {fileID: 0}
    propertyPath: go_LBShootStar.Array.size
    value: 0
    objectReference: {fileID: 0}
  - target: {fileID: 0}
    propertyPath: go_LBShootTriangle.Array.size
    value: 0
    objectReference: {fileID: 0}
  - target: {fileID: 0}
    propertyPath: go_LBShootBigBall.Array.size
    value: 0
    objectReference: {fileID: 0}
  - target: {fileID: 0}
    propertyPath: go_LBEmitterHolder
    value: 
    objectReference: {fileID: 0}
